{
  "main.css": "static/css/main.60dae545.css",
  "main.css.map": "static/css/main.60dae545.css.map",
  "main.js": "static/js/main.5527ec7a.js",
  "main.js.map": "static/js/main.5527ec7a.js.map",
  "static/media/avatar.jpg": "static/media/avatar.633cb7eb.jpg",
  "static/media/card-1.jpeg": "static/media/card-1.6ee66b2c.jpeg",
  "static/media/card-2.jpeg": "static/media/card-2.ae10829f.jpeg",
  "static/media/card-3.jpeg": "static/media/card-3.4ae4eeff.jpeg",
  "static/media/card-profile1-square.jpg": "static/media/card-profile1-square.3122abf4.jpg",
  "static/media/image_placeholder.jpg": "static/media/image_placeholder.ebe9884b.jpg",
  "static/media/logo-white.svg": "static/media/logo-white.eec7c7f6.svg",
  "static/media/logo.png": "static/media/logo.9fb9d40c.png",
  "static/media/marc.jpg": "static/media/marc.aba54d65.jpg",
  "static/media/placeholder.jpg": "static/media/placeholder.1eb7fff2.jpg",
  "static/media/product1.jpg": "static/media/product1.081bf019.jpg",
  "static/media/product3.jpg": "static/media/product3.a0e40011.jpg",
  "static/media/register.jpeg": "static/media/register.49b54380.jpeg",
  "static/media/sidebar-2.jpg": "static/media/sidebar-2.d30c9e30.jpg",
  "static/media/sidebar-5.jpg": "static/media/sidebar-5.5f760da5.jpg"
}